// Jest Snapshot v1, https://goo.gl/fbAQLP

exports[`Matches Snapshot 1`] = `
<div
  style={
    Object {
      "textAlign": "center",
    }
  }
>
  <h3>
    Enter Password To Get Data 
  </h3>
  <hr />
  <div>
     
    <input
      className="password"
      onChange={[Function]}
      placeholder="Enter Password"
      type="password"
      value=""
    />
    <button
      onClick={[Function]}
    >
      Get Data
    </button>
  </div>
   
  <br />
  <div
    className="result"
    style={
      Object {
        "display": "none",
        "textAlign": "center",
      }
    }
  >
     
    <div>
       
      Username: 
      
       
      <br />
       UserID: 
      
       
      <br />
       Account Number: 
      
       
      <br />
      Phone Number: 
      
       
      <br />
       Joined Date:
       
      
       
    </div>
  </div>
</div>
`;
